<?xml version="1.0" encoding="UTF-8"?>
<svg width="27px" height="39px" viewBox="0 0 27 39" version="1.1" xmlns="http://www.w3.org/2000/svg" xmlns:xlink="http://www.w3.org/1999/xlink">
    <!-- Generator: Sketch 52.6 (67491) - http://www.bohemiancoding.com/sketch -->
    <title>ic_lightbulb_outline_24px</title>
    <desc>Created with Sketch.</desc>
    <defs>
        <polygon id="path-1" points="0 0 45 0 45 45 0 45"></polygon>
        <linearGradient x1="50%" y1="100%" x2="50%" y2="3.061617e-15%" id="linearGradient-3">
            <stop stop-color="#006CA9" offset="0%"></stop>
            <stop stop-color="#0088D6" offset="100%"></stop>
        </linearGradient>
    </defs>
    <g id="V6" stroke="none" stroke-width="1" fill="none" fill-rule="evenodd">
        <g id="Resources_2" transform="translate(-39.000000, -911.000000)">
            <g id="Group-3-Copy" transform="translate(30.000000, 908.000000)">
                <g id="Content-Library-Copy-3">
                    <g id="ic_lightbulb_outline_24px">
                        <mask id="mask-2" fill="white">
                            <use xlink:href="#path-1"></use>
                        </mask>
                        <g id="a"></g>
                        <path d="M16.875,39.375 C16.875,40.40625 17.71875,41.25 18.75,41.25 L26.25,41.25 C27.28125,41.25 28.125,40.40625 28.125,39.375 L28.125,37.5 L16.875,37.5 L16.875,39.375 Z M22.5,3.75 C15.2625,3.75 9.375,9.6375 9.375,16.875 C9.375,21.3375 11.60625,25.25625 15,27.6375 L15,31.875 C15,32.90625 15.84375,33.75 16.875,33.75 L28.125,33.75 C29.15625,33.75 30,32.90625 30,31.875 L30,27.6375 C33.39375,25.25625 35.625,21.3375 35.625,16.875 C35.625,9.6375 29.7375,3.75 22.5,3.75 Z M27.84375,24.5625 L26.25,25.6875 L26.25,30 L18.75,30 L18.75,25.6875 L17.15625,24.5625 C14.625,22.8 13.125,19.93125 13.125,16.875 C13.125,11.7 17.325,7.5 22.5,7.5 C27.675,7.5 31.875,11.7 31.875,16.875 C31.875,19.93125 30.375,22.8 27.84375,24.5625 Z" id="Shape" fill="url(#linearGradient-3)" fill-rule="nonzero" mask="url(#mask-2)"></path>
                    </g>
                </g>
            </g>
        </g>
    </g>
</svg>